{
  "icons": [
    {
      "src": "/images/icons/icon_512x512.png",
      "sizes": "512x512",
      "type": "image/png"
    },
    {
      "src": "/images/icons/icon_384x384.png",
      "sizes": "384x384",
      "type": "image/png"
    },
    {
      "src": "/images/icons/icon_256x256.png",
      "sizes": "256x256",
      "type": "image/png"
    },
    {
      "src": "/images/icons/icon_192x192.png",
      "sizes": "192x192",
      "type": "image/png"
    },
    {
      "src": "/images/icons/icon_128x128.png",
      "sizes": "128x128",
      "type": "image/png"
    },
    {
      "src": "/images/icons/icon_96x96.png",
      "sizes": "96x96",
      "type": "image/png"
    }
  ],
  "name": "Nemesis",
  "short_name": "Nemesis",
  "orientation": "portrait",
  "display": "standalone",
  "start_url": ".",
  "description": "Kickstarter Hit Board Game Nemesis",
  "background_color": "#000000",
  "theme_color": "#000000",
  "theme-color": "#000000"
}