<svg xmlns="http://www.w3.org/2000/svg" viewBox="0 0 1234 564">
  <path fill="#fafbfb" d="M246.6 263.2c0 26.9-21.8 48.7-48.7 48.7-26.9 0-48.7-21.8-48.7-48.7 0-26.9 21.8-48.7 48.7-48.7 26.9 0 48.7 21.8 48.7 48.7m428.5 118.4c-26.9 0-48.7-21.8-48.7-48.7 0-26.9 21.8-48.7 48.7-48.7 26.9 0 48.7 21.8 48.7 48.7 0 26.9-21.8 48.7-48.7 48.7m10.5-167.1c-22 0-41.8 9.3-55.8 24.1v-93.7c0-3.8-3.1-7-7-7h-69.7c-3.9 0-7 3.1-7 7v292.4c0 3.8 3.1 7 7 7h69.7c3.8 0 7-3.1 7-7v-10.1c13.9 14.8 33.8 24.1 55.8 24.1h4.1C753.2 449.1 804 397 804 332.9c0-65.3-53-118.4-118.4-118.4m-564.3 7.1H51.6c-3.8 0-7 3.1-7 7v208.9c0 3.9 3.1 7 7 7h69.7c3.8 0 7-3.1 7-7v-209c0-3.8-3.2-6.9-7-6.9M1194 138h-69.7c-3.8 0-7 3.1-7 7v292.4c0 3.9 3.1 7 7 7h69.7c3.8 0 7-3.1 7-7V144.9c0-3.8-3.1-6.9-7-6.9M378.7 332.9h118.7c3.8 0 7-3.1 7-7v-.8c-4-61.7-55.4-110.6-118.1-110.6-65.4 0-118.4 53-118.4 118.4s53 118.4 118.4 118.4c52.5 0 96.9-34.2 112.5-81.4 0-.1.1-.2.1-.3.2-.6.3-1.3.3-1.9 0-3.8-3.1-7-7-7h-62.5c-2.1 0-3.9.9-5.2 2.4l-.3.3c-8.9 11.1-22.6 18.2-37.9 18.2-26.9 0-48.7-21.8-48.7-48.7h41.1zm571.2 0h118.6c3.9 0 7-3.1 7-7v-.8c-4-61.7-55.4-110.6-118.1-110.6C892 214.6 839 267.6 839 333s53 118.4 118.4 118.4c52.5 0 97-34.2 112.5-81.4 0-.1 0-.2.1-.3.2-.6.3-1.3.3-1.9 0-3.8-3.1-7-7-7h-62.5c-2.1 0-3.9.9-5.2 2.4-.1.1-.2.2-.2.3-8.9 11.1-22.6 18.2-37.9 18.2-26.9 0-48.7-21.8-48.7-48.7h41.1z"/>
</svg>
